…
``` r
#~~~~~~~~~~~~~~~~~~~~~~~~~~~~~~~~~~~~~~~~~~~~~~~~~~~~~~~~~~~~~~~~~~~~~~~
# Artificial defoliation in cotton phenology (Section 2.1)
#~~~~~~~~~~~~~~~~~~~~~~~~~~~~~~~~~~~~~~~~~~~~~~~~~~~~~~~~~~~~~~~~~~~~~~~

# Compute sample mean and variances
cotton_summary <-
  cotton %>%
  group_by(stage, defol) %>%
  summarise(me = mean(bolls),
            va = var(bolls),
            di = va/me) %>%
  ungroup()
cotton_summary
#> # A tibble: 25 x 5
#>    stage      defol    me    va     di
#>    <fct>      <dbl> <dbl> <dbl>  <dbl>
#>  1 vegetative  0      9    1    0.111 
#>  2 vegetative  0.25  10    0.5  0.05  
#>  3 vegetative  0.5    8.6  0.80 0.0930
#>  4 vegetative  0.75   8    1    0.125 
#>  5 vegetative  1      6.2  1.2  0.194 
#>  6 flower bud  0      8.4  1.30 0.155 
#>  7 flower bud  0.25   9.4  3.3  0.351 
#>  8 flower bud  0.5    8.8  0.7  0.0795
#>  9 flower bud  0.75   8.8  2.70 0.307 
#> 10 flower bud  1      7.2  0.20 0.0278
#> # … with 15 more rows
…
# Compute sample mean and variances
soybean_summary <-
  soybean %>%
  select(-vpods) %>%
  gather("variable", "count", seeds:tpods) %>%
  group_by(K, water, variable) %>%
  summarise(me = mean(count),
            va = var(count),
            di = va/me) %>%
  ungroup()
soybean_summary
#> # A tibble: 30 x 6
#>        K water variable    me     va    di
#>    <dbl> <dbl> <chr>    <dbl>  <dbl> <dbl>
#>  1   0    37.5 seeds    116.   293.  2.53 
#>  2   0    37.5 tpods     48.8   91.2 1.87 
#>  3   0    50   seeds    132.    32.7 0.247
#>  4   0    50   tpods     55.8   22.7 0.407
#>  5   0    62.5 seeds    139.    88.8 0.637
#>  6   0    62.5 tpods     60.6   50.8 0.838
#>  7   0.3  37.5 seeds    156    370   2.37 
#>  8   0.3  37.5 tpods     64.2   43.7 0.681
#>  9   0.3  50   seeds    186   1423   7.65 
#> 10   0.3  50   tpods     78.2  328.  4.19 
#> # … with 20 more rows
…
